nominal
MUR1p0_MUF2p0
MUR1p0_MUF0p5
MUR2p0_MUF1p0
MUR0p5_MUF1p0
MUR0p5_MUF0p5
MUR2p0_MUF2p0
MUR2p0_MUF0p5
MUR0p5_MUF2p0
PDF set = 25200
PDF set = 13165
PDF set = 90900
PDF set = 265000
PDF set = 266000
PDF set = 303400
PDF set = 260001
PDF set = 260002
PDF set = 260003
PDF set = 260004
PDF set = 260005
PDF set = 260006
PDF set = 260007
PDF set = 260008
PDF set = 260009
PDF set = 260010
PDF set = 260011
PDF set = 260012
PDF set = 260013
PDF set = 260014
PDF set = 260015
PDF set = 260016
PDF set = 260017
PDF set = 260018
PDF set = 260019
PDF set = 260020
PDF set = 260021
PDF set = 260022
PDF set = 260023
PDF set = 260024
PDF set = 260025
PDF set = 260026
PDF set = 260027
PDF set = 260028
PDF set = 260029
PDF set = 260030
PDF set = 260031
PDF set = 260032
PDF set = 260033
PDF set = 260034
PDF set = 260035
PDF set = 260036
PDF set = 260037
PDF set = 260038
PDF set = 260039
PDF set = 260040
PDF set = 260041
PDF set = 260042
PDF set = 260043
PDF set = 260044
PDF set = 260045
PDF set = 260046
PDF set = 260047
PDF set = 260048
PDF set = 260049
PDF set = 260050
PDF set = 260051
PDF set = 260052
PDF set = 260053
PDF set = 260054
PDF set = 260055
PDF set = 260056
PDF set = 260057
PDF set = 260058
PDF set = 260059
PDF set = 260060
PDF set = 260061
PDF set = 260062
PDF set = 260063
PDF set = 260064
PDF set = 260065
PDF set = 260066
PDF set = 260067
PDF set = 260068
PDF set = 260069
PDF set = 260070
PDF set = 260071
PDF set = 260072
PDF set = 260073
PDF set = 260074
PDF set = 260075
PDF set = 260076
PDF set = 260077
PDF set = 260078
PDF set = 260079
PDF set = 260080
PDF set = 260081
PDF set = 260082
PDF set = 260083
PDF set = 260084
PDF set = 260085
PDF set = 260086
PDF set = 260087
PDF set = 260088
PDF set = 260089
PDF set = 260090
PDF set = 260091
PDF set = 260092
PDF set = 260093
PDF set = 260094
PDF set = 260095
PDF set = 260096
PDF set = 260097
PDF set = 260098
PDF set = 260099
PDF set = 260100
PDF set = 90901
PDF set = 90902
PDF set = 90903
PDF set = 90904
PDF set = 90905
PDF set = 90906
PDF set = 90907
PDF set = 90908
PDF set = 90909
PDF set = 90910
PDF set = 90911
PDF set = 90912
PDF set = 90913
PDF set = 90914
PDF set = 90915
PDF set = 90916
PDF set = 90917
PDF set = 90918
PDF set = 90919
PDF set = 90920
PDF set = 90921
PDF set = 90922
PDF set = 90923
PDF set = 90924
PDF set = 90925
PDF set = 90926
PDF set = 90927
PDF set = 90928
PDF set = 90929
PDF set = 90930
2muF_MMHT
0p5muF_MMHT
2muR_MMHT
0p5muR_MMHT
0p5muF_0p5muR_MMHT
2muF_2muR_MMHT
0p5muF_2muR_MMHT
2muF_0p5muR_MMHT
2muF_CT14
0p5muF_CT14
2muR_CT14
0p5muR_CT14
0p5muF_0p5muR_CT14
2muF_2muR_CT14
0p5muF_2muR_CT14
2muF_0p5muR_CT14
2muF_PDF4LHC15_NLO_30
0p5muF_PDF4LHC15_NLO_30
2muR_PDF4LHC15_NLO_30
0p5muR_PDF4LHC15_NLO_30
0p5muF_0p5muR_PDF4LHC15_NLO_30
2muF_2muR_PDF4LHC15_NLO_30
0p5muF_2muR_PDF4LHC15_NLO_30
2muF_0p5muR_PDF4LHC15_NLO_30
2muF_NNPDF_NLO_0117
0p5muF_NNPDF_NLO_0117
2muR_NNPDF_NLO_0117
0p5muR_NNPDF_0117
0p5muF_0p5muR_NNPDF_NLO_0117
2muF_2muR_NNPDF_NLO_0117
0p5muF_2muR_NNPDF_NLO_0117
2muF_0p5muR_NNPDF_NLO_0117
2muF_NNPDF_NLO_0119
0p5muF_NNPDF_NLO_0119
2muR_NNPDF_NLO_0119
0p5muR_NNPDF_NLO_0119
0p5muF_0p5muR_NNPDF_NLO_0119
2muF_2muR_NNPDF_NLO_0119
0p5muF_2muR_NNPDF_NLO_0119
2muF_0p5muR_NNPDF_NLO_0119
2muF_NNPDF31_NLO_0118
0p5muF_NNPDF31_NLO_0118
2muR_NNPDF31_NLO_0118
0p5muR_NNPDF31_NLO_0118
0p5muF_0p5muR_NNPDF31_NLO_0118
2muF_2muR_NNPDF31_NLO_0118
0p5muF_2muR_NNPDF31_NLO_0118
2muF_0p5muR_NNPDF31_NLO_0118
Var3cUp
Var3cDown
isr_muRfac2p0_fsr_muRfac2p0
isr_muRfac2p0_fsr_muRfac1p0
isr_muRfac2p0_fsr_muRfac0p5
isr_muRfac1p0_fsr_muRfac2p0
isr_muRfac1p0_fsr_muRfac0p5
isr_muRfac0p5_fsr_muRfac2p0
isr_muRfac0p5_fsr_muRfac1p0
isr_muRfac0p5_fsr_muRfac0p5
isr_muRfac1p75_fsr_muRfac1p0
isr_muRfac1p5_fsr_muRfac1p0
isr_muRfac1p25_fsr_muRfac1p0
isr_muRfac0p625_fsr_muRfac1p0
isr_muRfac0p75_fsr_muRfac1p0
isr_muRfac0p875_fsr_muRfac1p0
isr_muRfac1p0_fsr_muRfac1p75
isr_muRfac1p0_fsr_muRfac1p5
isr_muRfac1p0_fsr_muRfac1p25
isr_muRfac1p0_fsr_muRfac0p625
isr_muRfac1p0_fsr_muRfac0p75
isr_muRfac1p0_fsr_muRfac0p875
hardHi
hardLo
